{
    "success": true,
    "count": 400,
    "next": "http://192.168.100.156:8000/api/sales/?page=2",
    "previous": null,
    "results": [
      {
        "id": 400,
        "applied_discount_percentage": 0.45,
        "discount_reason": "Education debate.",
        "total_price": 57285.673373181,
        "total_price_iva": 69315.66478154901,
        "tax_percentage": {
          "source": "21.0",
          "parsedValue": 21
        },
        "created_at": "2025-08-26T16:19:14.980751Z",
        "created_by": "hola (salesperson_stocker)",
        "items": [
          {
            "id": 1158,
            "product": {
              "code": "XE-280",
              "name": "Mrs Daughter",
              "stock": {
                "source": "71.0",
                "parsedValue": 71
              },
              "sell_price": 5096.88,
              "buy_price": 4329.92,
              "provider": 241,
              "last_modification": "2025-08-26",
              "in_offer": true,
              "offers_data": [
                {
                  "name": "List Offer",
                  "percentage": 11.07,
                  "end_date": "2025-10-25",
                  "created_at": "2025-08-26T16:19:15.227533Z",
                  "products": [
                    "AN-043",
                    "XE-280",
                    "aN-650",
                    "da-535",
                    "ej-257",
                    "gt-965",
                    "mY-308",
                    "zz-813"
                  ]
                }
              ]
            },
            "quantity": 2,
            "unit_price": 5096.88,
            "discount_percentage": 0.43,
            "subtotal": 10149.926832000001
          },
          {
            "id": 1159,
            "product": {
              "code": "ST-004",
              "name": "Job What",
              "stock": {
                "source": "0.0",
                "parsedValue": 0
              },
              "sell_price": 7415.85,
              "buy_price": 6148.38,
              "provider": 252,
              "last_modification": "2025-08-26",
              "in_offer": true,
              "offers_data": [
                {
                  "name": "Around Offer",
                  "percentage": 31.11,
                  "end_date": "2025-11-05",
                  "created_at": "2025-08-26T16:19:15.329722Z",
                  "products": [
                    "An-225",
                    "EH-236",
                    "JH-039",
                    "LI-322",
                    "ST-004",
                    "jS-821",
                    "qw-050"
                  ]
                },
                {
                  "name": "Even Offer",
                  "percentage": 37.41,
                  "end_date": "2025-10-10",
                  "created_at": "2025-08-26T16:19:15.353791Z",
                  "products": [
                    "AD-313",
                    "OP-338",
                    "ST-004",
                    "Ui-408",
                    "Xg-584",
                    "iI-769",
                    "lf-318"
                  ]
                }
              ]
            },
            "quantity": 7,
            "unit_price": 7415.85,
            "discount_percentage": 8.7,
            "subtotal": 47394.69735
          }
        ]
      }
    ]
  }